Query 1 THE 1 STOP 1 NGO 1 PRESSURE 1 DIEM 1 ON 2 DINH 1 TO 2 ADMINISTRATION 1 SUPPRESSING 1 KENNEDY 1 BUDDHISTS 1

Query 2 VIET 1 CABOT 1 EFFORTS 1 PRESIDENT 1 OF 2 POLITICAL 1 S 9 DIEM 1 GET 1 AMBASSADOR 1 TO 2 POLICIES 1 LODGE 1 NAM 1 HENRY 1 REPRESSION 1 CHANGE 1 HIS 1

Query 3 THE 2 TROOPS 2 VIET 1 NUMBER 2 WEST 1 OF 2 SOUTH 1 WITH 1 STATES 1 UNITED 1 IN 2 STATIONED 2 NAM 1 IT 3 AS 3 COMPARED 1 GERMANY 1 HAS 2

Query 4 THE 1 VIET 1 TOWARD 1 PRESIDENT 1 SOUTH 1 REGIME 1 S 3 DIEM 1 NEW 1 U 2 POLICY 1 IN 1 OVERTHREW 1 NAM 1 WHICH 1

Query 5 THE 1 VIET 1 COUP 1 PERSONS 1 IN 2 NAM 1 INVOLVED 1

Query 6 SUICIDES 1 SOME 1 SEEKING 1 NAM 1 MONKS 1 GAIN 1 CEREMONIAL 1 SOUTH 1 BUDDHIST 1 TO 1 IN 3 VIET 1 WHAT 1 SUCH 1 COMMITTED 1 THEY 1 BY 2 AND 1 ARE 1 ACTS 1

Query 7 FURTHER 1 ASIAN 1 NATION 1 OF 1 AN 3 S 5 REJECTION 1 AID 1 NORODOM 1 TO 1 U 4 ALL 1 NEUTRALIST 1 LEADER 1 SIHANOUK 1 PRINCE 1 HIS 1 BY 1

Query 8 AND 1 THE 2 BORNEO 1 MALAYSIA 1 SARAWAK 1 OF 3 JOINING 1 FEDERATION 1 ON 4 SURVEY 1 U 4 N 12 PUBLIC 1 IN 4 QUESTION 1 OPINION 1 NORTH 1 TEAM 1

Query 9 THE 1 MALAYSIA 1 OPPOSITION 1 OF 1 TO 1 INDONESIA 1 NEWLY 1 CREATED 1

Query 10 THE 2 MALAYSIA 1 PROPOSED 1 OF 2 CONTROVERSY 1 SOUTHEAST 1 A 9 IN 2 CREATION 1 FEDERATION 1 GROWING 1 ASIA 1 OVER 2

Query 11 THE 1 FOR 1 WEST 1 OF 1 BEEN 1 IRIAN 1 TO 1 UNITED 1 INDONESIA 1 ADMINISTRATION 2 ARRANGEMENTS 1 NATIONS 1 WHICH 1 UNDER 1 HAS 1 TAKE 1 OVER 1

Query 12 AND 1 THE 1 BETWEEN 1 MALAYSIA 1 PROPOSED 1 OF 1 MALAYA 1 CONTROVERSY 1 TERRITORIES 1 UNITE 1 ON 4 INDONESIA 1 WHICH 1 FEDERATION 1 WOULD 1 FIVE 1

Query 13 LAST 1 BEFORE 1 YEAR 1 14 1 UP 1 WAS 1 BROUGHT 1 IN 3 AGREED 1 LAOS 1 BRITAIN 1 THAT 1 BY 1 THE 2 PRECARIOUS 1 ON 2 TRUCE 2 NATIONS 1 WHICH 1 GENEVA 1

Query 14 WORD 1 IS 2 FROM 1 COUNTRIES 1 BEING 1 OF 3 PARTS 1 A 9 IN 5 USED 1 NAMES 1 RELATIONS 1 THREE 1 DISCUSSIONS 1 INTERNATIONAL 1 EAST 1 MAPHILINDO 1 THE 2 WHICH 1 FAR 1 FORMED 1

Query 15 ELECTION 1 PRESIDENT 1 OF 2 SOUTH 1 HEE 1 PARK 1 AS 1 CHUNG 1 KOREA 1

Query 16 STOP 1 FLARED 1 HAS 1 FOR 2 OF 1 TO 3 FIGHTING 1 IN 5 LAOS 1 THREE 1 THAT 1 INTERNATIONAL 1 TRY 1 COMMISSION 1 THE 2 EFFORTS 1 CHINA 1 CONTROL 1 INDO 1 NATION 2

Query 17 THE 2 MALAYSIA 1 PROPOSED 1 OF 2 WITHDRAWAL 1 SULTANATE 1 BRUNEI 1 FROM 1 FEDERATION 1 BY 1

Query 18 THE 1 FOR 2 OF 1 PEACEKEEPING 1 S 8 SUPPORT 1 TO 1 UNITED 1 FORCES 1 RUSSIA 1 CONTRIBUTE 1 REFUSAL 1 NATIONS 1 FUNDS 1

Query 19 ARAB 2 UNITED 2 FROM 2 REPUBLIC 1 BEING 1 AGREEMENT 1 THEIR 1 TO 2 YEMEN 2 EXPEDITIONARY 1 WITHDRAW 1 FORCES 1 SENT 1 SAUDI 1 ARABIA 1 BY 1 THE 3 AND 1 OBSERVERS 1 INVOLVES 1 FORCE 2 NATIONS 1 WHICH 1

Query 20 IF 1 UNITED 2 ASSESSMENT 1 IT 6 INVOLVED 1 BEING 1 HAS 1 ISSUES 1 UP 1 FAIL 1 REGULAR 1 OF 1 STATES 1 TO 2 ITS 2 IN 5 THESE 1 WHAT 1 PAYMENTS 1 LIMIT 1 ARREARS 2 WARNED 1 PAY 2 THE 3 LEVEL 1 NOW 1 ARE 1 NATIONS 3 WOULD 1

Query 21 THE 1 AND 1 OF 1 SOUTH 1 COUNCIL 1 AFRICAN 1 32 1 CONSIDERATION 1 AFRICA 2 COMPLAINTS 1 PORTUGAL 1 NATIONS 1 SECURITY 1 BY 1 AGAINST 1

Query 22 THE 1 WITHDRAWN 1 OFFERED 1 CONGO 1 ALTERNATIVES 1 HAVE 1 IF 1 ARE 1 FORCES 1 U 1 N 5 FROM 1 WHICH 1 BEEN 1

Query 23 THE 1 WHAT 1 HAVE 1 UNITED 1 NATIONS 1 COUNTRIES 1 NEWLY 1 JOINED 1

Query 24 EFFORTS 1 AFRICAN 1 GET 1 TO 2 UNITED 1 ITS 1 NATIONS 1 COLONIES 1 FREE 1 PORTUGAL 1

Query 25 THE 1 AND 1 BETWEEN 1 OF 1 ARAB 1 CONSIDERATION 1 U 1 N 7 ITS 1 NEIGHBORS 1 CONFLICT 1 ISRAEL 1

Query 26 THE 1 UNDERDEVELOPED 1 OF 2 U 2 N 5 IN 1 EFFECT 1 A 3 NATIONS 1 MAJORITY 1 COMPRISED 1

Query 27 POWER 1 FOR 1 BRITISH 1 PROPOSAL 1 HIGH 1 FOUR 1 SUMMIT 1 LEVEL 1 NEGOTIATIONS 1 WITH 1 OR 2 NEW 1 RUSSIA 1 A 4 MEETING 1

Query 28 THE 2 ELECTIONS 1 ITALIAN 1 OF 1 POLITICAL 1 PARTIES 1 RECENT 1 STRENGTHS 1 VOTES 1 IN 2 VARIOUS 1 POPULAR 1

Query 29 BETWEEN 1 SECRETARY 1 UNITED 1 EXPORTS 1 TITO 1 FOR 1 RUSK 1 OF 2 YUGOSLAV 2 TO 2 STATES 1 CONCERNING 1 TREATMENT 1 PRESIDENT 1 STATE 2 FAVORED 1 AND 1 THE 1 MOST 1 YUGOSLAVIA 1 NATION 1 TALKS 1

Query 30 BRITISH 1 SCANDAL 2 MAY 1 CONFIDENCE 1 PRIME 1 MINISTER 1 OF 3 HAVE 1 S 7 PARLIAMENTARY 1 IN 2 ELECTIONS 1 WHAT 1 WON 1 BY 1 THE 3 AND 3 CHANCES 1 ON 5 PROFUMO 2 EFFECT 1 LABOR 1 NEXT 1 VOTE 1 MACMILLAN 1

Query 31 THE 2 FUTURE 1 FIGURE 1 WEST 1 OF 2 LEADERS 1 GERMAN 1 DISCUSSIONS 1 IN 1 CHANCELLORSHIP 1 WHICH 1

Query 32 THE 1 FOUR 1 EUROPEAN 1 KHRUSHCHEV 1 OF 1 PREMIER 1 WITH 1 LEADERS 1 HELD 1 IN 1 COUNTRIES 1 EAST 2 GERMANY 1 SATELLITE 1 BY 1 TALKS 1

Query 33 THE 3 AND 1 INVOLVING 1 WAS 1 CONTROVERSY 1 FLEMINGS 1 CRISIS 1 PRODUCED 1 WALLOONS 1 WHICH 1 GOVERNMENT 1 BY 1

Query 34 THE 1 MINORITY 1 FACING 1 DIFFICULTIES 1 OF 1 UNREST 1 S 7 IS 1 BECAUSE 1 POLICIES 1 ITS 1 IRELAND 1 AGRICULTURAL 1 GOVERNMENT 1 GROWING 1 OVER 2

Query 35 AND 1 THE 2 BETWEEN 1 TALKS 1 BEEN 1 POSSESSIONS 1 WITH 1 S 10 ON 2 TROUBLES 1 AFRICAN 1 U 4 ITS 1 HAVING 1 HAS 1 PORTUGAL 2

Query 36 THE 1 CZECH 1 UPS 1 SHAKE 1 HEADED 1 PRESIDENT 1 REGIME 1 NOVOTNY 1 IN 2 ANTONIN 1 BY 1

Query 37 THE 1 AND 1 INVOLVING 1 CANADA 1 WHEAT 1 STATES 1 UNITED 1 RUSSIA 1 DEALS 1

Query 38 THE 1 NUMBER 1 EUROPE 1 SPECULATION 1 OF 1 BE 2 REDUCED 1 S 3 THAT 1 FORCES 1 U 5 MIGHT 1 IN 1

Query 39 THE 2 WING 1 AND 1 SOCIAL 2 LEFT 1 DEMOCRATS 2 BE 1 REPUBLICANS 1 TO 1 COALITION 1 BY 1 CHRISTIAN 1 IN 2 SOCIALISTS 1 GOVERNMENT 1 ITALY 1 FORMED 1

Query 40 THE 4 PARTY 2 OF 1 POLITICAL 1 OR 2 IS 1 BRITAIN 1 REGARDING 1 POLLS 1 IN 4 LABOR 1 LEAD 1 WHICH 1 CONSERVATIVES 1 RESULTS 1

Query 41 ALLIED 1 AFFECTING 1 RELATIONS 1 REJECT 1 WHAT 1 YEAR 1 DE 1 THIS 1 TWO 1 DID 1 PROPOSALS 1 GAULLE 1

Query 42 THE 1 EUROPEAN 1 SYSTEM 1 PRESIDENT 1 DE 3 FORCE 1 BE 2 FRANCE 1 S 8 NUCLEAR 1 SHOULD 1 THAT 1 KEYSTONE 1 OF 1 A 6 DEFENSE 1 BELIEF 1 GAULLE 1

Query 43 RELATIONSHIP 1 EFFORTS 1 FIND 1 KHRUSHCHEV 1 CLOSER 1 WITH 1 TO 1 A 4 YUGOSLAVIA 1 BY 1

Query 44 NONAGGRESSION 1 FOR 1 WEST 1 OPPOSITION 1 AN 1 PACT 1 S 8 BONN 1 TO 1 EAST 1 PROPOSALS 1

Query 45 THE 1 PRIME 1 MINISTER 1 OF 2 BACKGROUND 1 BRITAIN 1 NEW 1 GREAT 1

Query 46 THE 1 BRITISH 1 INTO 1 PRESIDENT 1 DE 2 COMMON 1 MARKET 1 S 3 ON 2 ENTRY 1 POLICY 1 GAULLE 1

Query 47 THE 1 FOR 1 EUROPE 1 INDEPENDENT 1 UNIFIED 1 OF 1 S 3 U 3 A 2 PROPOSALS 1

Query 48 THE 1 PROPOSAL 1 WHAT 1 HOT 1 IS 1 LINE 1

Query 49 THE 1 WEST 1 OF 2 CHANCELLOR 1 BACKGROUND 1 NEW 1 ERHARD 1 GERMANY 1 LUDWIG 1

Query 50 AND 1 APRIL 1 MINISTERS 1 BOTH 1 OF 3 THOSE 1 ARE 1 MEMBERS 1 THAT 1 IN 4 COUNTRIES 1 NATO 1 PARIS 1 SEATO 1 MEETING 1

Query 51 TO 1 KHRUSHCHEV 1 SUCCESSOR 1 PREMIER 1

Query 52 KHRUSHCHEV 1 BOTH 1 PREMIER 2 IS 3 SECRETARY 1 MAY 1 FROM 1 HINT 1 COMMUNIST 1 OF 1 ONE 1 HE 3 RETIRE 1 PARTY 1 WHO 1 THAT 1 HIS 1 BY 1 THE 1 AND 1 TWO 1 POSTS 1

Query 53 NONAGGRESSION 1 FOR 1 AND 1 BETWEEN 1 KHRUSHCHEV 1 THE 1 PREMIER 1 PACT 2 PRESSING 1 AGAIN 1 ONCE 1 A 11 NATIONS 1 NATO 1 WARSAW 1

Query 54 THE 3 BAN 1 CHINA 1 WEST 1 OF 1 TREATY 1 WITH 1 S 7 SOVIET 1 NUCLEAR 1 TO 1 TEST 1 SIGNING 1 UNION 1 REACTION 1 COMMUNIST 1

Query 55 FOR 1 MISSILE 1 NATO 1 PRESIDENT 1 SUGGESTION 1 MANNED 1 NUCLEAR 1 CREWS 1 INTERNATIONAL 1 A 7 FLEET 1 KENNEDY 1 MADE 1 BY 2

Query 56 THE 2 AND 1 PRESIDENT 1 SUGGESTION 1 S 5 SOVIET 1 ON 4 THAT 1 MOON 1 U 3 A 4 COOPERATE 1 PROJECT 1 UNION 1 KENNEDY 1 BY 1

Query 57 THE 1 BAN 1 OF 1 TREATY 1 TEST 1 PROVISIONS 1

Query 58 FOR 1 MISSILES 1 THEIR 1 S 12 NUCLEAR 1 SUBMARINE 1 FLEETS 1 U 3 OTHER 1 NATIONS 1 POLARIS 1 POSSESSING 1

Query 59 THE 3 AND 1 BETWEEN 1 INSPECTION 1 DISPUTE 1 CONFERENCES 1 S 9 SOVIET 1 DISARMAMENT 1 U 3 AT 1 UNION 1 SYSTEMS 1 GENEVA 1 OVER 1

Query 60 THE 1 BAN 1 OF 1 TREATY 1 TEST 1 SIGNING 1

Query 61 WEAPONS 1 WORKING 1 NUCLEAR 1 ON 3 NATIONS 1 DEVELOPMENT 1

Query 62 THE 1 KURD 1 FOR 1 AUTONOMY 1 OF 1 STRUGGLE 1 S 5 SUPPORT 1 MOSCOW 1

Query 63 THE 1 PRESENT 1 REMAINS 1 PARTY 1 PRESIDENT 1 SYRIA 1 NASSER 1 SO 1 ARAB 1 LONG 1 S 9 CONTROL 1 IN 5 GOVERNING 1 UNION 1 RULING 1 OUT 1 AS 2

Query 64 LAST 1 NEHRU 1 CONFIDENCE 1 OFFICE 1 SINCE 1 PARLIAMENT 1 PRIME 1 MINISTER 1 S 6 ATTACK 1 IN 6 UNDER 1 COMING 1 TOOK 1 MOTION 1 NO 1 BY 1 HIS 1 THE 2 FIRST 1 ENTERTAINED 1 WEEK 1 GOVERNMENT 1 INDIAN 1

Query 65 AND 1 BETWEEN 1 DISPUTE 1 BORDER 1 SYRIA 1 ISRAEL 1

Query 66 AND 2 ECONOMIC 2 BETWEEN 1 SYRIA 1 CLOSER 1 FULL 1 ON 4 UNITY 1 IRAQ 1 COOPERATION 1 AGREEMENT 1

Query 67 AND 1 BETWEEN 1 PAKISTAN 1 KASHMIR 1 CONTINUING 1 CONFLICT 1 INDIA 1 OVER 1

Query 68 OF 1 INVASION 1 ANOTHER 1 CHINESE 1 FEARS 1 INDIAN 1 COMMUNIST 1

Query 69 ARAB 1 MICHEL 1 GAINED 1 ALL 1 COUNTRIES 1 HAS 1 OF 1 AIMS 1 RENAISSANCE 1 TO 1 PARTY 1 SYRIA 1 UNITE 1 FOUNDED 1 BAATH 1 BY 1 THE 1 AND 2 CONTROL 1 IRAQ 1 WHICH 1 AFLAK 1

Query 70 POWER 1 GIVING 1 FREE 1 RULE 1 REIN 1 SIGNED 1 HALF 1 WHO 1 OF 1 REFORM 1 AWAY 1 KING 1 STATE 1 FEISAL 1 TO 1 S 6 BROTHER 1 HIS 2

Query 71 MILITARY 1 WHAT 1 BORDER 1 WITH 1 IS 3 DISPUTES 1 AID 1 TO 1 ITS 1 IN 3 NEIGHBORS 1 SUPPLIED 1 RUSSIA 1 INVOLVED 1 BEING 1 SOMALIA 2 BY 1

Query 72 ECONOMIC 1 APARTHEID 1 SOUTH 1 S 8 AFRICA 1 THAT 1 POLICY 1 A 13 TAKEN 1 PROTEST 1 AS 1 STEPS 1 NATION 1 AGAINST 2

Query 73 ALGERIA 2 ABOUT 1 CRITICISM 1 OF 1 WHO 1 PREMIER 1 LEADERS 1 ALGERIAN 1 BELLA 1 HELPED 1 INDEPENDENCE 1 INCREASING 1 BEN 1 IN 5 FROM 1 OTHER 1 BRING 1

Query 74 THE 2 MOISE 1 CONGO 1 OF 1 PROVINCE 1 AGAIN 1 IN 3 TAKE 1 TSHOMBE 1 KATANGA 1 BY 1 OVER 1

Query 75 THE 1 STAFF 1 ADOULA 1 CYRILLE 1 OF 1 ORDERING 1 PREMIER 1 S 8 SOVIET 1 THROWN 1 COUNTRY 1 ON 1 CHARGES 1 ENTIRE 1 OUT 1 HIS 1 SPYING 1 EMBASSY 1

Query 76 BE 1 MAY 1 HEADS 1 ADDIS 1 INDEPENDENT 1 OF 2 AFRICAN 2 UNITY 1 TO 1 IN 2 STATE 1 HELD 1 BY 1 THE 1 22 1 ON 4 NATIONS 1 ABABA 1 CONFERENCE 1 31 1

Query 77 SOME 1 CONTROLS 1 OF 2 TERRITORIES 1 AFRICAN 1 S 6 ITS 1 RELAXATION 1 SPAIN 1 OVER 1

Query 78 KENYA 2 12 1 BE 1 INDEPENDENCE 1 FROM 1 OF 1 TO 1 ITS 1 TANGANYIKA 1 AFRICA 1 BRITAIN 1 UGANDA 1 EAST 1 FEDERATION 1 BY 1 AND 2 GAINS 1 ON 2 WHEN 1 DEC 1 FORMED 1

Query 79 GIVING 1 PARTY 1 POWERS 1 POLITICAL 1 ALGERIAN 1 PREMIER 1 CONSTITUTION 1 ON 3 FULL 1 TO 1 NEW 1 BEN 1 A 6 BELLA 1 S 3 VOTE 1

Query 80 THE 2 AND 1 AREAS 1 AMERICA 1 DISPUTE 1 OF 3 SINO 1 OR 1 FERMENT 1 SOVIET 1 ON 3 AFRICA 1 NEW 1 LATIN 1 NATIONS 1 IN 3 EFFECTS 1 ASIA 1

Query 81 THE 4 REST 1 AND 1 TRADE 1 OF 1 WORLD 2 WITH 2 SOVIET 1 NON 1 UNION 1 CHINESE 1 COMMUNIST 3

Query 82 THE 2 SPLIT 1 CHINA 1 OF 1 WITH 1 SOVIET 1 BACKING 1 ALBANIAN 1 IN 3 UNION 1 IDEOLOGICAL 1 COMMUNIST 1

Query 83 BREAKING 1 RUSSIAN 1 SERIOUS 1 FOR 1 BLAMING 1 OF 2 TROUBLES 1 DELAYS 1 ITS 1 IN 4 CHINESE 1 TECHNICAL 1 ASSISTANCE 1 WITHDRAWAL 1 AND 1 THE 1 ECONOMIC 1 TREATY 1 RED 1 DEVELOPMENT 1 PROGRAM 1

